
     Program PWSCF v.6.4.1 starts on 18Jan2021 at  3:45:35 

     This program is part of the open-source Quantum ESPRESSO suite
     for quantum simulation of materials; please cite
         "P. Giannozzi et al., J. Phys.:Condens. Matter 21 395502 (2009);
         "P. Giannozzi et al., J. Phys.:Condens. Matter 29 465901 (2017);
          URL http://www.quantum-espresso.org", 
     in publications or presentations arising from this work. More details at
     http://www.quantum-espresso.org/quote

     Parallel version (MPI & OpenMP), running on       1 processor cores
     Number of MPI processes:                 1
     Threads/MPI process:                     1

     MPI processes distributed on     1 nodes
     Reading input from OPT.in

     Current dimensions of program PWSCF are:
     Max number of different atomic species (ntypx) = 10
     Max number of k-points (npk) =  40000
     Max angular momentum in pseudopotentials (lmaxx) =  3

     gamma-point specific algorithms are used

     Subspace diagonalization in iterative solution of the eigenvalue problem:
     a serial algorithm will be used


     G-vector sticks info
     --------------------
     sticks:   dense  smooth     PW     G-vecs:    dense   smooth      PW
     Sum        1789     777    193                57363    16519    2103



     bravais-lattice index     =            1
     lattice parameter (alat)  =       8.2762  a.u.
     unit-cell volume          =     566.8760 (a.u.)^3
     number of atoms/cell      =            8
     number of atomic types    =            2
     number of electrons       =        32.00
     number of Kohn-Sham states=           16
     kinetic-energy cutoff     =      36.0000  Ry
     charge density cutoff     =     330.0000  Ry
     convergence threshold     =      1.0E-06
     mixing beta               =       0.7000
     number of iterations used =            8  plain     mixing
     Exchange-correlation      = PBESOL ( 1  4 10  8 0 0)
     nstep                     =           50


     celldm(1)=   8.276169  celldm(2)=   0.000000  celldm(3)=   0.000000
     celldm(4)=   0.000000  celldm(5)=   0.000000  celldm(6)=   0.000000

     crystal axes: (cart. coord. in units of alat)
               a(1) = (   1.000000   0.000000   0.000000 )  
               a(2) = (   0.000000   1.000000   0.000000 )  
               a(3) = (   0.000000   0.000000   1.000000 )  

     reciprocal axes: (cart. coord. in units 2 pi/alat)
               b(1) = (  1.000000  0.000000  0.000000 )  
               b(2) = (  0.000000  1.000000  0.000000 )  
               b(3) = (  0.000000  0.000000  1.000000 )  


     PseudoPot. # 1 for Si read from file:
     C:/Users/mir56/Downloads/quantumVITAS-0.3.0_windows/pseudoPotLibs/pseudo_dojo_ONCVPSP_v0.4/nc-sr-04_pbesol_standard\Si.upf
     MD5 check sum: 600363b222eb372195bdefbe1ed7a9ea
     Pseudo is Norm-conserving + core correction, Zval =  4.0
     Generated using ONCVPSP code by D. R. Hamann
     Using radial grid of 1510 points,  6 beta functions with: 
                l(1) =   0
                l(2) =   0
                l(3) =   1
                l(4) =   1
                l(5) =   2
                l(6) =   2

     PseudoPot. # 2 for C  read from file:
     C:/Users/mir56/Downloads/quantumVITAS-0.3.0_windows/pseudoPotLibs/pseudo_dojo_ONCVPSP_v0.4/nc-sr-04_pbesol_standard\C.upf
     MD5 check sum: a5288e995a53f399613e53831d49662d
     Pseudo is Norm-conserving + core correction, Zval =  4.0
     Generated using ONCVPSP code by D. R. Hamann
     Using radial grid of 1248 points,  4 beta functions with: 
                l(1) =   0
                l(2) =   0
                l(3) =   1
                l(4) =   1

     atomic species   valence    mass     pseudopotential
        Si             4.00    28.08500     Si( 1.00)
        C              4.00    12.01100     C ( 1.00)

      4 Sym. Ops. (no inversion) found ( 2 have fractional translation)



   Cartesian axes

     site n.     atom                  positions (alat units)
         1           Si  tau(   1) = (   0.2500000   0.2400000   0.7500000  )
         2           Si  tau(   2) = (   0.2500000   0.7500000   0.2500000  )
         3           Si  tau(   3) = (   0.7500000   0.2500000   0.2500000  )
         4           Si  tau(   4) = (   0.7500000   0.7500000   0.7500000  )
         5           C   tau(   5) = (   0.0000000   0.0000000   0.0000000  )
         6           C   tau(   6) = (   0.0000000   0.5000000   0.5000000  )
         7           C   tau(   7) = (   0.5000000   0.0000000   0.5000000  )
         8           C   tau(   8) = (   0.5000000   0.5000000   0.0000000  )

     number of k points=     1
                       cart. coord. in units 2pi/alat
        k(    1) = (   0.0000000   0.0000000   0.0000000), wk =   2.0000000

     Dense  grid:    28682 G-vectors     FFT dimensions: (  48,  48,  48)

     Smooth grid:     8260 G-vectors     FFT dimensions: (  32,  32,  32)

     Estimated max dynamical RAM per process >      28.10 MB

     Initial potential from superposition of free atoms

     starting charge   31.99745, renormalised to   32.00000
     Starting wfcs are   32 randomized atomic wfcs

     total cpu time spent up to now is        1.0 secs

     Self-consistent Calculation

     iteration #  1     ecut=    36.00 Ry     beta= 0.70
     Davidson diagonalization with overlap
     ethr =  1.00E-02,  avg # of iterations =  2.0

     total cpu time spent up to now is        1.1 secs

     total energy              =     -80.34032940 Ry
     Harris-Foulkes estimate   =     -81.65198979 Ry
     estimated scf accuracy    <       1.98135452 Ry

     iteration #  2     ecut=    36.00 Ry     beta= 0.70
     Davidson diagonalization with overlap
     ethr =  6.19E-03,  avg # of iterations =  2.0

     total cpu time spent up to now is        1.3 secs

     total energy              =     -80.87087576 Ry
     Harris-Foulkes estimate   =     -81.18480524 Ry
     estimated scf accuracy    <       0.57222101 Ry

     iteration #  3     ecut=    36.00 Ry     beta= 0.70
     Davidson diagonalization with overlap
     ethr =  1.79E-03,  avg # of iterations =  2.0

     total cpu time spent up to now is        1.4 secs

     total energy              =     -80.98480007 Ry
     Harris-Foulkes estimate   =     -80.98523853 Ry
     estimated scf accuracy    <       0.00682791 Ry

     iteration #  4     ecut=    36.00 Ry     beta= 0.70
     Davidson diagonalization with overlap
     ethr =  2.13E-05,  avg # of iterations =  3.0

     total cpu time spent up to now is        1.6 secs

     total energy              =     -80.98685304 Ry
     Harris-Foulkes estimate   =     -80.98729933 Ry
     estimated scf accuracy    <       0.00122352 Ry

     iteration #  5     ecut=    36.00 Ry     beta= 0.70
     Davidson diagonalization with overlap
     ethr =  3.82E-06,  avg # of iterations =  2.0

     total cpu time spent up to now is        1.7 secs

     total energy              =     -80.98676076 Ry
     Harris-Foulkes estimate   =     -80.98694701 Ry
     estimated scf accuracy    <       0.00030391 Ry

     iteration #  6     ecut=    36.00 Ry     beta= 0.70
     Davidson diagonalization with overlap
     ethr =  9.50E-07,  avg # of iterations =  3.0

     total cpu time spent up to now is        1.9 secs

     total energy              =     -80.98685686 Ry
     Harris-Foulkes estimate   =     -80.98688876 Ry
     estimated scf accuracy    <       0.00006262 Ry

     iteration #  7     ecut=    36.00 Ry     beta= 0.70
     Davidson diagonalization with overlap
     ethr =  1.96E-07,  avg # of iterations =  2.0

     total cpu time spent up to now is        2.0 secs

     End of self-consistent calculation

          k = 0.0000 0.0000 0.0000 (  1052 PWs)   bands (ev):

    -5.7919  -0.7329  -0.6480  -0.5638   1.7260   1.7270   1.7320   6.4246
     6.4538   6.4717   6.4770   6.4821   6.5189   9.8110   9.8600   9.9126

     highest occupied level (ev):     9.9126

!    total energy              =     -80.98686981 Ry
     Harris-Foulkes estimate   =     -80.98687028 Ry
     estimated scf accuracy    <       0.00000079 Ry

     The total energy is the sum of the following terms:

     one-electron contribution =      22.49390081 Ry
     hartree contribution      =       9.99962567 Ry
     xc contribution           =     -30.17334058 Ry
     ewald contribution        =     -83.30705570 Ry

     convergence has been achieved in   7 iterations

     Forces acting on atoms (cartesian axes, Ry/au):

     atom    1 type  1   force =     0.00000000    0.04181695    0.00000000
     atom    2 type  1   force =     0.00000000   -0.01114283    0.00000000
     atom    3 type  1   force =     0.00000000    0.01167732    0.00000000
     atom    4 type  1   force =     0.00000000   -0.01114283    0.00000000
     atom    5 type  2   force =    -0.00214318   -0.00827010    0.00214318
     atom    6 type  2   force =     0.00084743   -0.00733420    0.00084743
     atom    7 type  2   force =     0.00214318   -0.00827010   -0.00214318
     atom    8 type  2   force =    -0.00084743   -0.00733420   -0.00084743

     Total force =     0.048979     Total SCF correction =     0.000978

     BFGS Geometry Optimization

     number of scf cycles    =   1
     number of bfgs steps    =   0

     energy             new  =     -80.9868698081 Ry

     new trust radius        =       0.0418169533 bohr
     new conv_thr            =       0.0000010000 Ry


ATOMIC_POSITIONS (alat)
Si       0.250000000   0.245052694   0.750000000
Si       0.250000000   0.748653624   0.250000000
Si       0.750000000   0.251410957   0.250000000
Si       0.750000000   0.748653624   0.750000000
C       -0.000258958  -0.000999267   0.000258958
C        0.000102394   0.499113817   0.500102394
C        0.500258958  -0.000999267   0.499741042
C        0.499897606   0.499113817  -0.000102394



     Writing output data file pwscf.save\
     Message from routine punch:
     wavefunctions written to file
     NEW-OLD atomic charge density approx. for the potential

     total cpu time spent up to now is        2.6 secs

     Self-consistent Calculation

     iteration #  1     ecut=    36.00 Ry     beta= 0.70
     Davidson diagonalization with overlap
     ethr =  1.00E-06,  avg # of iterations =  6.0

     total cpu time spent up to now is        2.7 secs

     total energy              =     -80.98825519 Ry
     Harris-Foulkes estimate   =     -80.98846445 Ry
     estimated scf accuracy    <       0.00037547 Ry

     iteration #  2     ecut=    36.00 Ry     beta= 0.70
     Davidson diagonalization with overlap
     ethr =  1.17E-06,  avg # of iterations =  3.0

     total cpu time spent up to now is        2.9 secs

     total energy              =     -80.98832471 Ry
     Harris-Foulkes estimate   =     -80.98834640 Ry
     estimated scf accuracy    <       0.00003840 Ry

     iteration #  3     ecut=    36.00 Ry     beta= 0.70
     Davidson diagonalization with overlap
     ethr =  1.20E-07,  avg # of iterations =  3.0

     total cpu time spent up to now is        3.1 secs

     total energy              =     -80.98833559 Ry
     Harris-Foulkes estimate   =     -80.98833807 Ry
     estimated scf accuracy    <       0.00000551 Ry

     iteration #  4     ecut=    36.00 Ry     beta= 0.70
     Davidson diagonalization with overlap
     ethr =  1.72E-08,  avg # of iterations =  5.0

     total cpu time spent up to now is        3.2 secs

     total energy              =     -80.98833691 Ry
     Harris-Foulkes estimate   =     -80.98833734 Ry
     estimated scf accuracy    <       0.00000105 Ry

     iteration #  5     ecut=    36.00 Ry     beta= 0.70
     Davidson diagonalization with overlap
     ethr =  3.27E-09,  avg # of iterations =  5.0

     total cpu time spent up to now is        3.4 secs

     End of self-consistent calculation

          k = 0.0000 0.0000 0.0000 (  1052 PWs)   bands (ev):

    -5.7888  -0.6540  -0.6471  -0.6391   1.7291   1.7293   1.7312   6.4603
     6.4687   6.4721   6.4732   6.4755   6.4861   9.8467   9.8595   9.8716

     highest occupied level (ev):     9.8716

!    total energy              =     -80.98833685 Ry
     Harris-Foulkes estimate   =     -80.98833737 Ry
     estimated scf accuracy    <       0.00000065 Ry

     The total energy is the sum of the following terms:

     one-electron contribution =      22.49900592 Ry
     hartree contribution      =       9.99775111 Ry
     xc contribution           =     -30.17305262 Ry
     ewald contribution        =     -83.31204126 Ry

     convergence has been achieved in   5 iterations

     Forces acting on atoms (cartesian axes, Ry/au):

     atom    1 type  1   force =     0.00000000    0.01287680    0.00000000
     atom    2 type  1   force =     0.00000000    0.00034572    0.00000000
     atom    3 type  1   force =     0.00000000   -0.00588679    0.00000000
     atom    4 type  1   force =     0.00000000    0.00034572    0.00000000
     atom    5 type  2   force =    -0.00112609   -0.00191782    0.00112609
     atom    6 type  2   force =     0.00078373   -0.00192290    0.00078373
     atom    7 type  2   force =     0.00112609   -0.00191782   -0.00112609
     atom    8 type  2   force =    -0.00078373   -0.00192290   -0.00078373

     Total force =     0.014933     Total SCF correction =     0.001783
     SCF correction compared to forces is large: reduce conv_thr to get better values

     number of scf cycles    =   2
     number of bfgs steps    =   1

     energy             old  =     -80.9868698081 Ry
     energy             new  =     -80.9883368484 Ry

     CASE: energy            _new < energy            _old

     new trust radius        =       0.0195667555 bohr
     new conv_thr            =       0.0000001288 Ry


ATOMIC_POSITIONS (alat)
Si       0.250000000   0.247416923   0.750000000
Si       0.250000000   0.748610756   0.250000000
Si       0.750000000   0.250597111   0.250000000
Si       0.750000000   0.748610756   0.750000000
C       -0.000452587  -0.001369090   0.000452587
C        0.000231571   0.498751317   0.500231571
C        0.500452587  -0.001369090   0.499547413
C        0.499768429   0.498751317  -0.000231571



     Writing output data file pwscf.save\
     Message from routine punch:
     wavefunctions written to file
     NEW-OLD atomic charge density approx. for the potential

     total cpu time spent up to now is        3.9 secs

     Self-consistent Calculation

     iteration #  1     ecut=    36.00 Ry     beta= 0.70
     Davidson diagonalization with overlap
     ethr =  1.00E-06,  avg # of iterations =  4.0

     total cpu time spent up to now is        4.1 secs

     total energy              =     -80.98851604 Ry
     Harris-Foulkes estimate   =     -80.98857914 Ry
     estimated scf accuracy    <       0.00009638 Ry

     iteration #  2     ecut=    36.00 Ry     beta= 0.70
     Davidson diagonalization with overlap
     ethr =  3.01E-07,  avg # of iterations =  3.0

     total cpu time spent up to now is        4.2 secs

     total energy              =     -80.98854136 Ry
     Harris-Foulkes estimate   =     -80.98855144 Ry
     estimated scf accuracy    <       0.00001740 Ry

     iteration #  3     ecut=    36.00 Ry     beta= 0.70
     Davidson diagonalization with overlap
     ethr =  5.44E-08,  avg # of iterations =  4.0

     total cpu time spent up to now is        4.4 secs

     total energy              =     -80.98854503 Ry
     Harris-Foulkes estimate   =     -80.98854660 Ry
     estimated scf accuracy    <       0.00000345 Ry

     iteration #  4     ecut=    36.00 Ry     beta= 0.70
     Davidson diagonalization with overlap
     ethr =  1.08E-08,  avg # of iterations =  5.0

     total cpu time spent up to now is        4.5 secs

     total energy              =     -80.98854589 Ry
     Harris-Foulkes estimate   =     -80.98854613 Ry
     estimated scf accuracy    <       0.00000074 Ry

     iteration #  5     ecut=    36.00 Ry     beta= 0.70
     Davidson diagonalization with overlap
     ethr =  2.30E-09,  avg # of iterations =  4.0

     total cpu time spent up to now is        4.7 secs

     End of self-consistent calculation

          k = 0.0000 0.0000 0.0000 (  1052 PWs)   bands (ev):

    -5.7886  -0.6530  -0.6463  -0.6396   1.7292   1.7294   1.7303   6.4683
     6.4724   6.4731   6.4731   6.4734   6.4762   9.8568   9.8593   9.8617

     highest occupied level (ev):     9.8617

!    total energy              =     -80.98854601 Ry
     Harris-Foulkes estimate   =     -80.98854601 Ry
     estimated scf accuracy    <          6.8E-09 Ry

     The total energy is the sum of the following terms:

     one-electron contribution =      22.49980226 Ry
     hartree contribution      =       9.99737993 Ry
     xc contribution           =     -30.17296713 Ry
     ewald contribution        =     -83.31276107 Ry

     convergence has been achieved in   5 iterations

     Forces acting on atoms (cartesian axes, Ry/au):

     atom    1 type  1   force =     0.00000000    0.00251825    0.00000000
     atom    2 type  1   force =     0.00000000    0.00115047    0.00000000
     atom    3 type  1   force =     0.00000000   -0.00633510    0.00000000
     atom    4 type  1   force =     0.00000000    0.00115047    0.00000000
     atom    5 type  2   force =    -0.00041503    0.00044003    0.00041503
     atom    6 type  2   force =     0.00077556    0.00031792    0.00077556
     atom    7 type  2   force =     0.00041503    0.00044003   -0.00041503
     atom    8 type  2   force =    -0.00077556    0.00031792   -0.00077556

     Total force =     0.007267     Total SCF correction =     0.000049

     number of scf cycles    =   3
     number of bfgs steps    =   2

     energy             old  =     -80.9883368484 Ry
     energy             new  =     -80.9885460099 Ry

     CASE: energy            _new < energy            _old

     new trust radius        =       0.0092951947 bohr
     new conv_thr            =       0.0000000209 Ry


ATOMIC_POSITIONS (alat)
Si       0.250000000   0.248490520   0.750000000
Si       0.250000000   0.748725635   0.250000000
Si       0.750000000   0.249473984   0.250000000
Si       0.750000000   0.748725635   0.750000000
C       -0.000567423  -0.001407467   0.000567423
C        0.000388595   0.498699580   0.500388595
C        0.500567423  -0.001407467   0.499432577
C        0.499611405   0.498699580  -0.000388595



     Writing output data file pwscf.save\
     Message from routine punch:
     wavefunctions written to file
     NEW-OLD atomic charge density approx. for the potential

     total cpu time spent up to now is        5.2 secs

     Self-consistent Calculation

     iteration #  1     ecut=    36.00 Ry     beta= 0.70
     Davidson diagonalization with overlap
     ethr =  1.00E-06,  avg # of iterations =  4.0

     total cpu time spent up to now is        5.4 secs

     total energy              =     -80.98858732 Ry
     Harris-Foulkes estimate   =     -80.98861372 Ry
     estimated scf accuracy    <       0.00003872 Ry

     iteration #  2     ecut=    36.00 Ry     beta= 0.70
     Davidson diagonalization with overlap
     ethr =  1.21E-07,  avg # of iterations =  4.0

     total cpu time spent up to now is        5.5 secs

     total energy              =     -80.98859776 Ry
     Harris-Foulkes estimate   =     -80.98860403 Ry
     estimated scf accuracy    <       0.00001095 Ry

     iteration #  3     ecut=    36.00 Ry     beta= 0.70
     Davidson diagonalization with overlap
     ethr =  3.42E-08,  avg # of iterations =  5.0

     total cpu time spent up to now is        5.7 secs

     total energy              =     -80.98860001 Ry
     Harris-Foulkes estimate   =     -80.98860180 Ry
     estimated scf accuracy    <       0.00000489 Ry

     iteration #  4     ecut=    36.00 Ry     beta= 0.70
     Davidson diagonalization with overlap
     ethr =  1.53E-08,  avg # of iterations =  5.0

     total cpu time spent up to now is        5.8 secs

     total energy              =     -80.98860086 Ry
     Harris-Foulkes estimate   =     -80.98860086 Ry
     estimated scf accuracy    <       0.00000004 Ry

     iteration #  5     ecut=    36.00 Ry     beta= 0.70
     Davidson diagonalization with overlap
     ethr =  1.36E-10,  avg # of iterations =  4.0

     total cpu time spent up to now is        6.0 secs

     End of self-consistent calculation

          k = 0.0000 0.0000 0.0000 (  1052 PWs)   bands (ev):

    -5.7886  -0.6508  -0.6463  -0.6417   1.7291   1.7294   1.7302   6.4682
     6.4712   6.4724   6.4730   6.4731   6.4783   9.8549   9.8592   9.8635

     highest occupied level (ev):     9.8635

!    total energy              =     -80.98860087 Ry
     Harris-Foulkes estimate   =     -80.98860089 Ry
     estimated scf accuracy    <       0.00000002 Ry

     The total energy is the sum of the following terms:

     one-electron contribution =      22.49978624 Ry
     hartree contribution      =       9.99728883 Ry
     xc contribution           =     -30.17293187 Ry
     ewald contribution        =     -83.31274408 Ry

     convergence has been achieved in   5 iterations

     Forces acting on atoms (cartesian axes, Ry/au):

     atom    1 type  1   force =     0.00000000   -0.00067033    0.00000000
     atom    2 type  1   force =     0.00000000    0.00032972    0.00000000
     atom    3 type  1   force =     0.00000000   -0.00259614    0.00000000
     atom    4 type  1   force =     0.00000000    0.00032972    0.00000000
     atom    5 type  2   force =    -0.00023561    0.00071302    0.00023561
     atom    6 type  2   force =     0.00048273    0.00059050    0.00048273
     atom    7 type  2   force =     0.00023561    0.00071302   -0.00023561
     atom    8 type  2   force =    -0.00048273    0.00059050   -0.00048273

     Total force =     0.003205     Total SCF correction =     0.000239

     number of scf cycles    =   4
     number of bfgs steps    =   3

     energy             old  =     -80.9885460099 Ry
     energy             new  =     -80.9886008745 Ry

     CASE: energy            _new < energy            _old

     new trust radius        =       0.0042520414 bohr
     new conv_thr            =       0.0000000100 Ry


ATOMIC_POSITIONS (alat)
Si       0.250000000   0.248648860   0.750000000
Si       0.250000000   0.748763839   0.250000000
Si       0.750000000   0.248960214   0.250000000
Si       0.750000000   0.748763839   0.750000000
C       -0.000626250  -0.001328496   0.000626250
C        0.000484927   0.498760120   0.500484927
C        0.500626250  -0.001328496   0.499373750
C        0.499515073   0.498760120  -0.000484927



     Writing output data file pwscf.save\
     Message from routine punch:
     wavefunctions written to file
     NEW-OLD atomic charge density approx. for the potential

     total cpu time spent up to now is        6.5 secs

     Self-consistent Calculation

     iteration #  1     ecut=    36.00 Ry     beta= 0.70
     Davidson diagonalization with overlap
     ethr =  1.00E-06,  avg # of iterations =  3.0

     Threshold (ethr) on eigenvalues was too large:
     Diagonalizing with lowered threshold

     Davidson diagonalization with overlap
     ethr =  1.73E-08,  avg # of iterations =  5.0

     total cpu time spent up to now is        6.7 secs

     total energy              =     -80.98860597 Ry
     Harris-Foulkes estimate   =     -80.98861215 Ry
     estimated scf accuracy    <       0.00000904 Ry

     iteration #  2     ecut=    36.00 Ry     beta= 0.70
     Davidson diagonalization with overlap
     ethr =  2.83E-08,  avg # of iterations =  5.0

     total cpu time spent up to now is        6.9 secs

     total energy              =     -80.98860687 Ry
     Harris-Foulkes estimate   =     -80.98861077 Ry
     estimated scf accuracy    <       0.00000780 Ry

     iteration #  3     ecut=    36.00 Ry     beta= 0.70
     Davidson diagonalization with overlap
     ethr =  2.44E-08,  avg # of iterations =  4.0

     total cpu time spent up to now is        7.0 secs

     total energy              =     -80.98860870 Ry
     Harris-Foulkes estimate   =     -80.98860956 Ry
     estimated scf accuracy    <       0.00000240 Ry

     iteration #  4     ecut=    36.00 Ry     beta= 0.70
     Davidson diagonalization with overlap
     ethr =  7.50E-09,  avg # of iterations =  5.0

     total cpu time spent up to now is        7.2 secs

     total energy              =     -80.98860908 Ry
     Harris-Foulkes estimate   =     -80.98860909 Ry
     estimated scf accuracy    <       0.00000001 Ry

     iteration #  5     ecut=    36.00 Ry     beta= 0.70
     Davidson diagonalization with overlap
     ethr =  3.95E-11,  avg # of iterations =  5.0

     total cpu time spent up to now is        7.3 secs

     End of self-consistent calculation

          k = 0.0000 0.0000 0.0000 (  1052 PWs)   bands (ev):

    -5.7886  -0.6469  -0.6464  -0.6457   1.7292   1.7294   1.7301   6.4679
     6.4679   6.4724   6.4729   6.4766   6.4783   9.8577   9.8591   9.8606

     highest occupied level (ev):     9.8606

!    total energy              =     -80.98860909 Ry
     Harris-Foulkes estimate   =     -80.98860910 Ry
     estimated scf accuracy    <          9.3E-09 Ry

     The total energy is the sum of the following terms:

     one-electron contribution =      22.49963776 Ry
     hartree contribution      =       9.99733795 Ry
     xc contribution           =     -30.17293422 Ry
     ewald contribution        =     -83.31265058 Ry

     convergence has been achieved in   5 iterations

     Forces acting on atoms (cartesian axes, Ry/au):

     atom    1 type  1   force =     0.00000000   -0.00051943    0.00000000
     atom    2 type  1   force =     0.00000000   -0.00005627    0.00000000
     atom    3 type  1   force =     0.00000000   -0.00024231    0.00000000
     atom    4 type  1   force =     0.00000000   -0.00005627    0.00000000
     atom    5 type  2   force =    -0.00020118    0.00026974    0.00020118
     atom    6 type  2   force =     0.00040179    0.00016740    0.00040179
     atom    7 type  2   force =     0.00020118    0.00026974   -0.00020118
     atom    8 type  2   force =    -0.00040179    0.00016740   -0.00040179

     Total force =     0.001159     Total SCF correction =     0.000154
     SCF correction compared to forces is large: reduce conv_thr to get better values

     bfgs converged in   5 scf cycles and   4 bfgs steps
     (criteria: energy <  1.0E-04 Ry, force <  1.0E-03 Ry/Bohr)

     End of BFGS Geometry Optimization

     Final energy             =     -80.9886090904 Ry
Begin final coordinates

ATOMIC_POSITIONS (alat)
Si       0.250000000   0.248648860   0.750000000
Si       0.250000000   0.748763839   0.250000000
Si       0.750000000   0.248960214   0.250000000
Si       0.750000000   0.748763839   0.750000000
C       -0.000626250  -0.001328496   0.000626250
C        0.000484927   0.498760120   0.500484927
C        0.500626250  -0.001328496   0.499373750
C        0.499515073   0.498760120  -0.000484927
End final coordinates



     Writing output data file pwscf.save\

     init_run     :      0.45s CPU      0.47s WALL (       1 calls)
     electrons    :      3.91s CPU      4.14s WALL (       5 calls)
     update_pot   :      0.88s CPU      0.93s WALL (       4 calls)
     forces       :      1.28s CPU      1.30s WALL (       5 calls)

     Called by init_run:
     wfcinit      :      0.02s CPU      0.03s WALL (       1 calls)
     potinit      :      0.16s CPU      0.15s WALL (       1 calls)
     hinit0       :      0.27s CPU      0.29s WALL (       1 calls)

     Called by electrons:
     c_bands      :      0.91s CPU      0.94s WALL (      28 calls)
     sum_band     :      0.16s CPU      0.15s WALL (      28 calls)
     v_of_rho     :      3.17s CPU      3.36s WALL (      32 calls)
     mix_rho      :      0.09s CPU      0.09s WALL (      28 calls)

     Called by c_bands:
     init_us_2    :      0.03s CPU      0.03s WALL (      57 calls)
     regterg      :      0.80s CPU      0.83s WALL (      28 calls)

     Called by sum_band:

     Called by *egterg:
     h_psi        :      0.67s CPU      0.68s WALL (     136 calls)
     g_psi        :      0.00s CPU      0.00s WALL (     107 calls)
     rdiaghg      :      0.03s CPU      0.05s WALL (     130 calls)

     Called by h_psi:
     h_psi:pot    :      0.67s CPU      0.68s WALL (     136 calls)
     h_psi:calbec :      0.09s CPU      0.10s WALL (     136 calls)
     vloc_psi     :      0.50s CPU      0.51s WALL (     136 calls)
     add_vuspsi   :      0.08s CPU      0.07s WALL (     136 calls)

     General routines
     calbec       :      0.11s CPU      0.12s WALL (     156 calls)
     fft          :      0.38s CPU      0.37s WALL (     355 calls)
     ffts         :      0.00s CPU      0.02s WALL (      60 calls)
     fftw         :      0.45s CPU      0.48s WALL (    1698 calls)
     interpolate  :      0.05s CPU      0.07s WALL (      32 calls)
     davcio       :      0.00s CPU      0.00s WALL (       4 calls)

     Parallel routines

     PWSCF        :      7.08s CPU      7.63s WALL


   This run was terminated on:   3:45:43  18Jan2021            

=------------------------------------------------------------------------------=
   JOB DONE.
=------------------------------------------------------------------------------=
